Estimating the genetic or full liability — estimate_liability • LTFHPlus
…
    See also

    future_apply

    Examples

sims <- simulate_under_LTM(fam_vec = c("m","f","s1"), n_fam = NULL, 
add_ind = TRUE, h2 = 0.5, n_sim=100, pop_prev = .05)

estimate_liability(family = sims$fam_ID, threshs = sims$thresholds, 
h2 = 0.5, pid = "indiv_ID", fam_id = "fam_ID", out = c(1), tol = 0.01,
always_add = c("g","o"))
#> The number of workers is 1
#> # A tibble: 100 × 4
#>    fam_ID    indiv_ID Posterior_genetic_liab Posterior_genetic_std_err
#>    <list>    <chr>                     <dbl>                     <dbl>
#>  1 <chr [4]> ID1                     -0.0485                   0.00415
#>  2 <chr [4]> ID2                     -0.0269                   0.00413
#>  3 <chr [4]> ID3                     -0.0389                   0.00403
#>  4 <chr [4]> ID4                     -0.0174                   0.00411
#>  5 <chr [4]> ID5                     -0.0387                   0.00388
#>  6 <chr [4]> ID6                      0.528                    0.00334
#>  7 <chr [4]> ID7                     -0.0339                   0.00396
#>  8 <chr [4]> ID8                     -0.0212                   0.00410
#>  9 <chr [4]> ID9                     -0.0347                   0.00400
#> 10 <chr [4]> ID10                    -0.0460                   0.00415
#> # … with 90 more rows
# 
sims <- simulate_under_LTM(fam_vec = c(), n_fam = NULL, add_ind = TRUE, 
h2 = 0.5, n_sim=100, pop_prev = .05)
estimate_liability(family = sims$fam_ID, threshs = sims$thresholds, 
h2 = 0.5, pid = "indiv_ID", fam_id = "fam_ID", out = c("genetic"), 
tol = 0.01, always_add = c("g","o"))
#> The number of workers is 1
#> # A tibble: 100 × 4
#>    fam_ID    indiv_ID Posterior_genetic_liab Posterior_genetic_std_err
#>    <list>    <chr>                     <dbl>                     <dbl>
#>  1 <chr [1]> ID1                     1.22                      0.00154
#>  2 <chr [1]> ID2                    -0.00940                   0.00382
#>  3 <chr [1]> ID3                    -0.00663                   0.00371
#>  4 <chr [1]> ID4                    -0.00252                   0.00407
#>  5 <chr [1]> ID5                     0.00453                   0.00385
#>  6 <chr [1]> ID6                     0.00162                   0.00347
#>  7 <chr [1]> ID7                    -0.00743                   0.00357
#>  8 <chr [1]> ID8                     0.00348                   0.00380
#>  9 <chr [1]> ID9                    -0.00172                   0.00373
#> 10 <chr [1]> ID10                   -0.00905                   0.00370
#> # … with 90 more rows
…
