How the covariance is constructed • LTFHPlus
…
sims$thresholds

## # A tibble: 40 × 5
##    fam_ID    indiv_ID    role  lower upper
##    <chr>     <chr>       <chr> <dbl> <dbl>
##  1 fam_ID_1  fam_ID_1_1  o      -Inf  3.70
##  2 fam_ID_2  fam_ID_2_1  o      -Inf  3.57
##  3 fam_ID_3  fam_ID_3_1  o      -Inf  3.54
##  4 fam_ID_4  fam_ID_4_1  o      -Inf  3.37
##  5 fam_ID_5  fam_ID_5_1  o      -Inf  2.86
##  6 fam_ID_6  fam_ID_6_1  o      -Inf  2.79
##  7 fam_ID_7  fam_ID_7_1  o      -Inf  3.01
##  8 fam_ID_8  fam_ID_8_1  o      -Inf  3.30
##  9 fam_ID_9  fam_ID_9_1  o      -Inf  3.60
## 10 fam_ID_10 fam_ID_10_1 o      -Inf  3.54
## # ℹ 30 more rows
…
