LT-FH++ Graph Example • LTFHPlus
…
# random thresholds to store as attributes
thrs =  tibble(
 id = family %>% select(1:3) %>% unlist() %>% unique(),
 lower = sample(c(-Inf, 2), size = length(id), replace = TRUE),
 upper = sample(c(2, Inf), size = length(id), replace = TRUE)) %>% print()

## # A tibble: 31 × 3
##    id       lower upper
##    <chr>    <dbl> <dbl>
##  1 pid       -Inf     2
##  2 sib       -Inf   Inf
##  3 mhs          2   Inf
##  4 phs       -Inf   Inf
##  5 mom       -Inf     2
##  6 dad          2     2
##  7 dad2      -Inf   Inf
##  8 paunt     -Inf     2
##  9 pacousin  -Inf     2
## 10 hspaunt      2   Inf
## # ℹ 21 more rows
…
ltfhpp = estimate_liability(
  family_graphs = family_graphs,
  h2 = .5,
  pid = "pid",
  family_graphs_col = "fam_graph"
) %>% print()

## The number of workers is 1

## # A tibble: 31 × 4
##    fam_ID   pid      genetic_est genetic_se
##    <chr>    <chr>          <dbl>      <dbl>
##  1 pid      pid            0.939    0.00270
##  2 sib      sib            1.01     0.00350
##  3 mhs      mhs            1.44     0.00208
##  4 phs      phs            0.566    0.00349
##  5 mom      mom            1.07     0.00284
##  6 dad      dad            1.21     0.00186
##  7 dad2     dad2           1.07     0.00341
##  8 paunt    paunt          0.773    0.00272
##  9 pacousin pacousin       0.301    0.00366
## 10 hspaunt  hspaunt        1.85     0.00193
## # ℹ 21 more rows
…
