LT-FH++ Example • LTFHPlus
…
  cases = status_vec == 1
  aoo_vec[cases] = LTFHPlus::liab_to_aoo(liab = cur_liabs[cases],
                                         pop_prev = prev[sex_vec[cases]])
  #return information
  c(list(id_vec),
    list(sex_vec),
    list(status_vec),
    list(age_vec),
    list(aoo_vec))
}) %>% do.call("rbind", . ) %>% #outputs list, combining with rbind 
  as_tibble(.name_repair = 'unique') %>% # converting to tibble
  rename("ids" = "...1", "sex" = "...2", "status" = "...3", "age" = "...4", "aoo" = "...5") %>% # renaming columns
  print()

## # A tibble: 10,000 x 5
##    ids       sex       status    age       aoo      
##    <list>    <list>    <list>    <list>    <list>   
##  1 <chr [5]> <int [5]> <int [5]> <dbl [5]> <dbl [5]>
##  2 <chr [5]> <int [5]> <int [5]> <dbl [5]> <dbl [5]>
##  3 <chr [5]> <int [5]> <int [5]> <dbl [5]> <dbl [5]>
##  4 <chr [5]> <int [5]> <int [5]> <dbl [5]> <dbl [5]>
##  5 <chr [5]> <int [5]> <int [5]> <dbl [5]> <dbl [5]>
##  6 <chr [5]> <int [5]> <int [5]> <dbl [5]> <dbl [5]>
##  7 <chr [5]> <int [5]> <int [5]> <dbl [5]> <dbl [5]>
##  8 <chr [5]> <int [5]> <int [5]> <dbl [5]> <dbl [5]>
##  9 <chr [5]> <int [5]> <int [5]> <dbl [5]> <dbl [5]>
## 10 <chr [5]> <int [5]> <int [5]> <dbl [5]> <dbl [5]>
## # ... with 9,990 more rows
…
  lower[cases] <- upper[cases] <- LTFHPlus::age_to_thres(age = phen$aoo[[n]][cases], pop_prev = prev[phen$sex[[n]][cases]])
  
  upper[!cases] <- LTFHPlus::age_to_thres(age = phen$age[[n]][!cases], pop_prev = prev[phen$sex[[n]][!cases]])
  res$ids = ids
  res$lower = lower
  res$upper = upper
  res
}) %>% 
  lapply(., as_tibble) %>% 
  bind_rows() %>%
  print()

## # A tibble: 50,000 x 3
##    ids   lower upper
##    <chr> <dbl> <dbl>
##  1 1      -Inf  1.77
##  2 1_f    -Inf  1.43
##  3 1_m    -Inf  2.08
##  4 1_s1   -Inf  2.17
##  5 1_s2   -Inf  2.21
##  6 2      -Inf  3.21
##  7 2_f    -Inf  1.97
##  8 2_m    -Inf  2.52
##  9 2_s1   -Inf  3.64
## 10 2_s2   -Inf  3.96
## # ... with 49,990 more rows
…
