LT-FH++ Example No Family History • LTFHPlus
…
# keep only relevant information
phen = dplyr::select(phen, ids, status, lower, upper, child_gen) %>% 
  print()

## # A tibble: 10,000 x 5
##      ids status lower upper child_gen
##    <int>  <int> <dbl> <dbl>     <dbl>
##  1     1      0  -Inf  3.73    -0.378
##  2     2      0  -Inf  3.20     0.121
##  3     3      0  -Inf  2.63     0.391
##  4     4      0  -Inf  3.10     0.753
##  5     5      0  -Inf  2.06    -0.637
##  6     6      0  -Inf  3.78    -0.182
##  7     7      0  -Inf  3.34    -0.757
##  8     8      0  -Inf  2.98     0.933
##  9     9      0  -Inf  2.52     0.802
## 10    10      0  -Inf  3.71    -0.325
## # ... with 9,990 more rows

phen contains the prevalence information, e.g. age & sex, needed to find the upper and lower limit. Strictly speaking, only the ids, lower and upper limit is necessary from this point on.

Running LT-FH++ no family history

With all input parameters generated and the heritability set in the global settings, we have everything we need to run LT-FH++. The package Future.apply can be used to parallelize the computations for LT-FH++, and we highly recommend doing this, since all modern computers have more than 2 cores available to them. The future framework also allows for easy use on high performance computing (HPC) clusters. In this example, we will utilize 5 threads.

#start parallelization
plan(tweak(multisession, workers = nthreads))

ltfhpp_nofh = estimate_gen_liability_noFH(phen = phen, h2 = h2)
ltfhpp_nofh

## # A tibble: 10,000 x 7
##      ids status lower upper child_gen post_gen_no_fam post_gen_no_fam_se
##    <int>  <int> <dbl> <dbl>     <dbl>           <dbl>              <dbl>
##  1     1      0  -Inf  3.73    -0.378         0.00857            0.00580
##  2     2      0  -Inf  3.20     0.121        -0.00703            0.00528
##  3     3      0  -Inf  2.63     0.391        -0.00256            0.00550
##  4     4      0  -Inf  3.10     0.753         0.00537            0.00513
##  5     5      0  -Inf  2.06    -0.637        -0.0275             0.00574
##  6     6      0  -Inf  3.78    -0.182        -0.00329            0.00529
##  7     7      0  -Inf  3.34    -0.757        -0.0119             0.00525
##  8     8      0  -Inf  2.98     0.933         0.00186            0.00529
##  9     9      0  -Inf  2.52     0.802        -0.0124             0.00523
## 10    10      0  -Inf  3.71    -0.325         0.00390            0.00568
## # ... with 9,990 more rows
…
