LTFHPlus Multiple Traits Example • LTFHPlus
…
  all_phen[[j]] = do.call("rbind", tmp) %>% 
    as_tibble(.name_repair = 'unique') %>%
    rename("ids" = "...1", "sex" = "...2", "status" = "...3", "age" = "...4", "aoo" = "...5")
}
all_phen

## [[1]]
## # A tibble: 10,000 x 5
##    ids       sex       status    age       aoo      
##    <list>    <list>    <list>    <list>    <list>   
##  1 <chr [5]> <int [5]> <int [5]> <dbl [5]> <dbl [5]>
##  2 <chr [5]> <int [5]> <int [5]> <dbl [5]> <dbl [5]>
##  3 <chr [5]> <int [5]> <int [5]> <dbl [5]> <dbl [5]>
##  4 <chr [5]> <int [5]> <int [5]> <dbl [5]> <dbl [5]>
##  5 <chr [5]> <int [5]> <int [5]> <dbl [5]> <dbl [5]>
##  6 <chr [5]> <int [5]> <int [5]> <dbl [5]> <dbl [5]>
##  7 <chr [5]> <int [5]> <int [5]> <dbl [5]> <dbl [5]>
##  8 <chr [5]> <int [5]> <int [5]> <dbl [5]> <dbl [5]>
##  9 <chr [5]> <int [5]> <int [5]> <dbl [5]> <dbl [5]>
## 10 <chr [5]> <int [5]> <int [5]> <dbl [5]> <dbl [5]>
## # ... with 9,990 more rows
## 
## [[2]]
## # A tibble: 10,000 x 5
##    ids       sex       status    age       aoo      
##    <list>    <list>    <list>    <list>    <list>   
##  1 <chr [5]> <int [5]> <int [5]> <dbl [5]> <dbl [5]>
##  2 <chr [5]> <int [5]> <int [5]> <dbl [5]> <dbl [5]>
##  3 <chr [5]> <int [5]> <int [5]> <dbl [5]> <dbl [5]>
##  4 <chr [5]> <int [5]> <int [5]> <dbl [5]> <dbl [5]>
##  5 <chr [5]> <int [5]> <int [5]> <dbl [5]> <dbl [5]>
##  6 <chr [5]> <int [5]> <int [5]> <dbl [5]> <dbl [5]>
##  7 <chr [5]> <int [5]> <int [5]> <dbl [5]> <dbl [5]>
##  8 <chr [5]> <int [5]> <int [5]> <dbl [5]> <dbl [5]>
##  9 <chr [5]> <int [5]> <int [5]> <dbl [5]> <dbl [5]>
## 10 <chr [5]> <int [5]> <int [5]> <dbl [5]> <dbl [5]>
## # ... with 9,990 more rows
…
    upper[!cases] <- LTFHPlus::age_to_thres(age = phen$age[[n]][!cases],
                                            pop_prev = prev[phen$sex[[n]][!cases]])
    res$ids = ids
    res$lower = lower
    res$upper = upper
#    return(tibble(ids = ids, lower = lower, upper = upper))
    res
  })
  #combining all values into one tibble
  all_thr[[i]] = lapply(tmp, as_tibble) %>% bind_rows()
}
all_thr

## [[1]]
## # A tibble: 50,000 x 3
##    ids   lower upper
##    <chr> <dbl> <dbl>
##  1 1      -Inf  3.39
##  2 1_f    -Inf  1.69
##  3 1_m    -Inf  2.40
##  4 1_s1   -Inf  3.70
##  5 1_s2   -Inf  3.75
##  6 2      -Inf  3.37
##  7 2_f    -Inf  2.58
##  8 2_m    -Inf  2.57
##  9 2_s1   -Inf  3.91
## 10 2_s2   -Inf  3.57
## # ... with 49,990 more rows
## 
## [[2]]
## # A tibble: 50,000 x 3
##    ids   lower upper
##    <chr> <dbl> <dbl>
##  1 1      -Inf  3.39
##  2 1_f    -Inf  1.69
##  3 1_m    -Inf  2.40
##  4 1_s1   -Inf  3.70
##  5 1_s2   -Inf  3.75
##  6 2      -Inf  3.37
##  7 2_f    -Inf  2.58
##  8 2_m    -Inf  2.57
##  9 2_s1   -Inf  3.91
## 10 2_s2   -Inf  3.57
## # ... with 49,990 more rows
…
Running LT-FH++

With all input parameters generated and the correlation matrix for all traits set in the global settings, we have everything we need to run LT-FH++ for multiple traits. The package Future.apply can be used to parallelize the computations, and we highly recommend doing this, since all modern computers have more than 2 cores available to them. The future framework also allows for easy use on high performance computing (HPC) clusters. In this example, we will utilize 5 threads.

#Setting up parallelization backend
plan(tweak(multisession, workers = nthreads))
#performs LT-FH++ analysis

#performing the LT-FH++ analysis
multi = estimate_gen_liability_multi_trait(corr.mat = corr_mat,
                                           phen.list = all_phen,
                                           thr.list = all_thr)
multi

## # A tibble: 10,000 x 3
##    IID   post_gen_liab post_gen_liab_se
##    <chr>         <dbl>            <dbl>
##  1 1           -0.0445          0.00453
##  2 2           -0.0168          0.00476
##  3 3           -0.118           0.00376
##  4 4            1.12            0.00209
##  5 5            0.250           0.00359
##  6 6            0.320           0.00407
##  7 7           -0.0894          0.00422
##  8 8            0.154           0.00410
##  9 9           -0.0936          0.00434
## 10 10          -0.0798          0.00422
## # ... with 9,990 more rows
…
