From CIP and family to LT-FH++ input • LTFHPlus
…
#### THIS IS DUMMY CIP. DO NOT USE FOR REAL-WORLD DATA USE ####
CIP = expand.grid(list(age = 1:100,
                       birth_year = 1900:2024,
                       sex = 0:1)) %>%
  group_by(sex, birth_year) %>%
  mutate(cip = (1:n() - 1)/n() * .1) %>%
  ungroup() %>% 
  print()

## # A tibble: 25,000 × 4
##      age birth_year   sex   cip
##    <int>      <int> <int> <dbl>
##  1     1       1900     0 0    
##  2     2       1900     0 0.001
##  3     3       1900     0 0.002
##  4     4       1900     0 0.003
##  5     5       1900     0 0.004
##  6     6       1900     0 0.005
##  7     7       1900     0 0.006
##  8     8       1900     0 0.007
##  9     9       1900     0 0.008
## 10    10       1900     0 0.009
## # ℹ 24,990 more rows
…
