How the covariance is constructed • LTFHPlus
…
sims$thresholds

## # A tibble: 40 × 5
##    fam_ID    indiv_ID    role    lower upper
##    <chr>     <chr>       <chr>   <dbl> <dbl>
##  1 fam_ID_1  fam_ID_1_1  o     -Inf     3.09
##  2 fam_ID_2  fam_ID_2_1  o     -Inf     3.70
##  3 fam_ID_3  fam_ID_3_1  o        1.65  1.65
##  4 fam_ID_4  fam_ID_4_1  o     -Inf     2.67
##  5 fam_ID_5  fam_ID_5_1  o     -Inf     3.12
##  6 fam_ID_6  fam_ID_6_1  o     -Inf     3.44
##  7 fam_ID_7  fam_ID_7_1  o     -Inf     3.33
##  8 fam_ID_8  fam_ID_8_1  o     -Inf     2.97
##  9 fam_ID_9  fam_ID_9_1  o     -Inf     3.67
## 10 fam_ID_10 fam_ID_10_1 o     -Inf     3.37
## # ℹ 30 more rows
…
