LT-FH++ Example • LTFHPlus
…
sims <- simulate_under_LTM(fam_vec = c("m","f","s1"), 
                           n_fam = NULL, 
                           add_ind = TRUE, 
                           h2 = h2, 
                           n_sim = 100, 
                           pop_prev = .1)
sims

## $sim_obs
## # A tibble: 100 × 14
##    fam_ID         g      o      m      f      s1 o_status m_status f_status
##    <chr>      <dbl>  <dbl>  <dbl>  <dbl>   <dbl> <lgl>    <lgl>    <lgl>   
##  1 fam_ID_1   0.934  0.300  1.98   0.608 -0.780  FALSE    TRUE     FALSE   
##  2 fam_ID_2   0.591  0.711  0.113  0.231 -0.0416 FALSE    FALSE    FALSE   
##  3 fam_ID_3  -0.962 -1.25  -1.77   1.47   0.892  FALSE    FALSE    TRUE    
##  4 fam_ID_4   0.555  0.559 -0.614 -0.944  0.110  FALSE    FALSE    FALSE   
##  5 fam_ID_5   0.337  0.247  0.595  0.299  2.37   FALSE    FALSE    FALSE   
##  6 fam_ID_6   0.183 -0.139  0.636  0.141 -0.168  FALSE    FALSE    FALSE   
##  7 fam_ID_7   0.921  0.494  1.44   0.119  0.664  FALSE    TRUE     FALSE   
##  8 fam_ID_8  -0.904 -1.16   1.11   0.475 -0.878  FALSE    FALSE    FALSE   
##  9 fam_ID_9   0.363 -0.206  0.620  0.376 -0.534  FALSE    FALSE    FALSE   
## 10 fam_ID_10 -0.312 -0.131  1.03  -0.389  0.212  FALSE    FALSE    FALSE   
## # ℹ 90 more rows
## # ℹ 5 more variables: s1_status <lgl>, o_aoo <dbl>, m_aoo <dbl>, f_aoo <dbl>,
## #   s1_aoo <dbl>
## 
## $thresholds
## # A tibble: 400 × 5
##    fam_ID    indiv_ID    role  lower upper
##    <chr>     <chr>       <chr> <dbl> <dbl>
##  1 fam_ID_1  fam_ID_1_1  o      -Inf  2.79
##  2 fam_ID_2  fam_ID_2_1  o      -Inf  3.17
##  3 fam_ID_3  fam_ID_3_1  o      -Inf  2.63
##  4 fam_ID_4  fam_ID_4_1  o      -Inf  2.76
##  5 fam_ID_5  fam_ID_5_1  o      -Inf  3.14
##  6 fam_ID_6  fam_ID_6_1  o      -Inf  2.95
##  7 fam_ID_7  fam_ID_7_1  o      -Inf  3.42
##  8 fam_ID_8  fam_ID_8_1  o      -Inf  3.45
##  9 fam_ID_9  fam_ID_9_1  o      -Inf  2.95
## 10 fam_ID_10 fam_ID_10_1 o      -Inf  2.91
## # ℹ 390 more rows
…
#Setting up parallelization backend
plan(tweak(multisession, workers = nthreads))
#performs LT-FH++ analysis
simu_liab = estimate_liability(.tbl = sims$thresholds,
                               h2 = h2,
                               pid = "indiv_ID",
                               fam_id = "fam_ID",
                               role = "role")

## The number of workers is 4

simu_liab

## # A tibble: 100 × 4
##    fam_ID    indiv_ID    genetic_est          genetic_se         
##    <chr>     <chr>       <chr>                <chr>              
##  1 fam_ID_1  fam_ID_1_1  0.444096425245677    0.00350671124889102
##  2 fam_ID_2  fam_ID_2_1  -0.00914845665526472 0.00436730257601537
##  3 fam_ID_3  fam_ID_3_1  0.332439199046806    0.00361182179130543
##  4 fam_ID_4  fam_ID_4_1  -0.0620108177638813  0.00417126783511199
##  5 fam_ID_5  fam_ID_5_1  0.51551345741891     0.00356926196252759
##  6 fam_ID_6  fam_ID_6_1  -0.0280895065208585  0.00465230520293855
##  7 fam_ID_7  fam_ID_7_1  0.358135870129802    0.00363675844234315
##  8 fam_ID_8  fam_ID_8_1  -0.00958897982912453 0.00429759171427015
##  9 fam_ID_9  fam_ID_9_1  -0.0465388834980118  0.00432021544602438
## 10 fam_ID_10 fam_ID_10_1 -0.085883292914355   0.00395322206312178
## # ℹ 90 more rows
…
