LT-FH++ Graph Example • LTFHPlus
…
# random thresholds to store as attributes
thrs =  tibble(
 id = family %>% select(1:3) %>% unlist() %>% unique(),
 lower = sample(c(-Inf, 2), size = length(id), replace = TRUE),
 upper = sample(c(2, Inf), size = length(id), replace = TRUE)) %>% print()

## # A tibble: 31 × 3
##    id       lower upper
##    <chr>    <dbl> <dbl>
##  1 pid       -Inf     2
##  2 sib          2     2
##  3 mhs          2     2
##  4 phs          2     2
##  5 mom          2     2
##  6 dad       -Inf   Inf
##  7 dad2         2     2
##  8 paunt     -Inf   Inf
##  9 pacousin     2   Inf
## 10 hspaunt      2   Inf
## # ℹ 21 more rows
…
ltfhpp = estimate_liability(
  family_graphs = family_graphs,
  h2 = .5,
  pid = "pid",
  family_graphs_col = "fam_graph"
) %>% print()

## The number of workers is 1
## # A tibble: 31 × 4
##    fam_ID   pid      genetic_est genetic_se
##    <chr>    <chr>          <dbl>      <dbl>
##  1 pid      pid            0.986    0.00278
##  2 sib      sib            1.38     0.00170
##  3 mhs      mhs            1.63     0.00149
##  4 phs      phs            1.37     0.00170
##  5 mom      mom            1.41     0.00154
##  6 dad      dad            1.17     0.00300
##  7 dad2     dad2           1.52     0.00145
##  8 paunt    paunt          1.31     0.00342
##  9 pacousin pacousin       1.17     0.00223
## 10 hspaunt  hspaunt        1.33     0.00206
## # ℹ 21 more rows
…
